transcript
project open C:/UCSD/SS2_2022/final_submission_pg1/pg1
# Errors: 0, Warnings: 0
# Compile of DataMem.sv was successful.
# Errors: 0, Warnings: 0
# Compile of Definitions.sv was successful.
# Errors: 0, Warnings: 0
# Compile of Immediate_LUT.sv was successful.
# Errors: 0, Warnings: 0
# Compile of InstFetch.sv was successful.
# Errors: 0, Warnings: 0
# Compile of InstROM.sv was successful.
# Errors: 0, Warnings: 0
# Compile of program1_tb.sv was successful.
# Errors: 0, Warnings: 0
# Compile of RegFile.sv was successful.
# Errors: 0, Warnings: 0
# Compile of top_level.sv was successful.
# Errors: 0, Warnings: 0
# Compile of ALU.sv was successful.
# Errors: 0, Warnings: 0
# Compile of Ctrl.sv was successful.
vsim -gui work.encrypt_tb
# vsim -gui work.encrypt_tb 
# Start time: 22:36:04 on Sep 04,2022
# Loading sv_std.std
# Loading work.encrypt_tb
# Loading work.top_level
# Loading work.InstFetch
# Loading work.Immediate_LUT
# Loading work.InstROM
# Loading work.Definitions
# Loading work.Ctrl_sv_unit
# Loading work.Ctrl
# Loading work.RegFile
# Loading work.ALU_sv_unit
# Loading work.ALU
# Loading work.DataMem
add wave -position insertpoint sim:/encrypt_tb/dut/*
run -all
# run encryption program; original message = 
#   01234546789abcdefghijklmnopqrstuvwxyz. 
# pt_no =  0
# LFSR_ptrn = 0x60, LFSR_init = 0xa0
# i=          0, msg_pad=0x20, lfsr=10100000 msg_crypt w/ parity = 0xa0
# i=          1, msg_pad=0x20, lfsr=01000001 msg_crypt w/ parity = 0x41
# i=          2, msg_pad=0x20, lfsr=00000011 msg_crypt w/ parity = 0x03
# i=          3, msg_pad=0x20, lfsr=00000110 msg_crypt w/ parity = 0x06
# i=          4, msg_pad=0x20, lfsr=00001100 msg_crypt w/ parity = 0x0c
# i=          5, msg_pad=0x20, lfsr=00011000 msg_crypt w/ parity = 0x18
# i=          6, msg_pad=0x20, lfsr=00110000 msg_crypt w/ parity = 0x30
# i=          7, msg_pad=0x20, lfsr=01100001 msg_crypt w/ parity = 0x61
# i=          8, msg_pad=0x20, lfsr=01000010 msg_crypt w/ parity = 0x42
# i=          9, msg_pad=0x20, lfsr=00000101 msg_crypt w/ parity = 0x05
# i=         10, msg_pad=0x20, lfsr=00001010 msg_crypt w/ parity = 0x0a
# i=         11, msg_pad=0x20, lfsr=00010100 msg_crypt w/ parity = 0x14
# i=         12, msg_pad=0x20, lfsr=00101000 msg_crypt w/ parity = 0x28
# i=         13, msg_pad=0x20, lfsr=01010001 msg_crypt w/ parity = 0x51
# i=         14, msg_pad=0x20, lfsr=00100011 msg_crypt w/ parity = 0x23
# i=         15, msg_pad=0x20, lfsr=01000111 msg_crypt w/ parity = 0x47
# i=         16, msg_pad=0x20, lfsr=00001111 msg_crypt w/ parity = 0x0f
# i=         17, msg_pad=0x30, lfsr=00011110 msg_crypt w/ parity = 0x0e
# i=         18, msg_pad=0x31, lfsr=00111100 msg_crypt w/ parity = 0x2d
# i=         19, msg_pad=0x32, lfsr=01111001 msg_crypt w/ parity = 0x6b
# i=         20, msg_pad=0x33, lfsr=01110010 msg_crypt w/ parity = 0x61
# i=         21, msg_pad=0x34, lfsr=01100100 msg_crypt w/ parity = 0x70
# i=         22, msg_pad=0x35, lfsr=01001000 msg_crypt w/ parity = 0x5d
# i=         23, msg_pad=0x34, lfsr=00010001 msg_crypt w/ parity = 0x05
# i=         24, msg_pad=0x36, lfsr=00100010 msg_crypt w/ parity = 0x34
# i=         25, msg_pad=0x37, lfsr=01000101 msg_crypt w/ parity = 0x52
# i=         26, msg_pad=0x38, lfsr=00001011 msg_crypt w/ parity = 0x13
# i=         27, msg_pad=0x39, lfsr=00010110 msg_crypt w/ parity = 0x0f
# i=         28, msg_pad=0x61, lfsr=00101100 msg_crypt w/ parity = 0x6d
# i=         29, msg_pad=0x62, lfsr=01011001 msg_crypt w/ parity = 0x1b
# i=         30, msg_pad=0x63, lfsr=00110011 msg_crypt w/ parity = 0x70
# i=         31, msg_pad=0x64, lfsr=01100111 msg_crypt w/ parity = 0x23
# i=         32, msg_pad=0x65, lfsr=01001110 msg_crypt w/ parity = 0x0b
# i=         33, msg_pad=0x66, lfsr=00011101 msg_crypt w/ parity = 0x5b
# i=         34, msg_pad=0x67, lfsr=00111010 msg_crypt w/ parity = 0x7d
# i=         35, msg_pad=0x68, lfsr=01110101 msg_crypt w/ parity = 0x3d
# i=         36, msg_pad=0x69, lfsr=01101010 msg_crypt w/ parity = 0x23
# i=         37, msg_pad=0x6a, lfsr=01010100 msg_crypt w/ parity = 0x1e
# i=         38, msg_pad=0x6b, lfsr=00101001 msg_crypt w/ parity = 0x62
# i=         39, msg_pad=0x6c, lfsr=01010011 msg_crypt w/ parity = 0x1f
# i=         40, msg_pad=0x6d, lfsr=00100111 msg_crypt w/ parity = 0x6a
# i=         41, msg_pad=0x6e, lfsr=01001111 msg_crypt w/ parity = 0x01
# i=         42, msg_pad=0x6f, lfsr=00011111 msg_crypt w/ parity = 0x50
# i=         43, msg_pad=0x70, lfsr=00111110 msg_crypt w/ parity = 0x6e
# i=         44, msg_pad=0x71, lfsr=01111101 msg_crypt w/ parity = 0x2c
# i=         45, msg_pad=0x72, lfsr=01111010 msg_crypt w/ parity = 0x28
# i=         46, msg_pad=0x73, lfsr=01110100 msg_crypt w/ parity = 0x27
# i=         47, msg_pad=0x74, lfsr=01101000 msg_crypt w/ parity = 0x3c
# i=         48, msg_pad=0x75, lfsr=01010000 msg_crypt w/ parity = 0x05
# i=         49, msg_pad=0x76, lfsr=00100001 msg_crypt w/ parity = 0x77
# i=         50, msg_pad=0x77, lfsr=01000011 msg_crypt w/ parity = 0x14
# i=         51, msg_pad=0x78, lfsr=00000111 msg_crypt w/ parity = 0x5f
# i=         52, msg_pad=0x79, lfsr=00001110 msg_crypt w/ parity = 0x57
# i=         53, msg_pad=0x7a, lfsr=00011100 msg_crypt w/ parity = 0x46
# i=         54, msg_pad=0x2e, lfsr=00111000 msg_crypt w/ parity = 0x36
# i=         55, msg_pad=0x20, lfsr=01110001 msg_crypt w/ parity = 0x71
# i=         56, msg_pad=0x20, lfsr=01100010 msg_crypt w/ parity = 0x62
# i=         57, msg_pad=0x20, lfsr=01000100 msg_crypt w/ parity = 0x44
# i=         58, msg_pad=0x20, lfsr=00001001 msg_crypt w/ parity = 0x09
# i=         59, msg_pad=0x20, lfsr=00010010 msg_crypt w/ parity = 0x12
# i=         60, msg_pad=0x20, lfsr=00100100 msg_crypt w/ parity = 0x24
# i=         61, msg_pad=0x20, lfsr=01001001 msg_crypt w/ parity = 0x49
# i=         62, msg_pad=0x20, lfsr=00010011 msg_crypt w/ parity = 0x13
# i=         63, msg_pad=0x20, lfsr=00100110 msg_crypt w/ parity = 0x26
# encrypted string =  
# @a#&,8Pb%*4HqCg/.M‹}%Tr3/;C+{]C>‚?Š!pŽLHG\%—4wfV‘‚d)2Di3F
# 
# 
# program 1:
#           0 bench msg: @ a0 dut msg: a0
#           1 bench msg: a 41 dut msg: 41
#           2 bench msg: # 03 dut msg: 03
#           3 bench msg: & 06 dut msg: 06
#           4 bench msg: , 0c dut msg: 0c
#           5 bench msg: 8 18 dut msg: 18
#           6 bench msg: P 30 dut msg: 30
#           7 bench msg:  61 dut msg: 61
#           8 bench msg: b 42 dut msg: 42
#           9 bench msg: % 05 dut msg: 05
#          10 bench msg: * 0a dut msg: 0a
#          11 bench msg: 4 14 dut msg: 14
#          12 bench msg: H 28 dut msg: 28
#          13 bench msg: q 51 dut msg: 51
#          14 bench msg: C 23 dut msg: 23
#          15 bench msg: g 47 dut msg: 47
#          16 bench msg: / 0f dut msg: 0f
#          17 bench msg: . 0e dut msg: 0e
#          18 bench msg: M 2d dut msg: 2d
#          19 bench msg: ‹ 6b dut msg: 6b
#          20 bench msg:  61 dut msg: 61
#          21 bench msg:  70 dut msg: 70
#          22 bench msg: } 5d dut msg: 5d
#          23 bench msg: % 05 dut msg: 05
#          24 bench msg: T 34 dut msg: 34
#          25 bench msg: r 52 dut msg: 52
#          26 bench msg: 3 13 dut msg: 13
#          27 bench msg: / 0f dut msg: 0f
#          28 bench msg:  6d dut msg: 6d
#          29 bench msg: ; 1b dut msg: 1b
#          30 bench msg:  70 dut msg: 70
#          31 bench msg: C 23 dut msg: 23
#          32 bench msg: + 0b dut msg: 0b
#          33 bench msg: { 5b dut msg: 5b
#          34 bench msg:  7d dut msg: 7d
#          35 bench msg: ] 3d dut msg: 3d
#          36 bench msg: C 23 dut msg: 23
#          37 bench msg: > 1e dut msg: 1e
#          38 bench msg: ‚ 62 dut msg: 62
#          39 bench msg: ? 1f dut msg: 1f
#          40 bench msg: Š 6a dut msg: 6a
#          41 bench msg: ! 01 dut msg: 01
#          42 bench msg: p 50 dut msg: 50
#          43 bench msg: Ž 6e dut msg: 6e
#          44 bench msg: L 2c dut msg: 2c
#          45 bench msg: H 28 dut msg: 28
#          46 bench msg: G 27 dut msg: 27
#          47 bench msg: \ 3c dut msg: 3c
#          48 bench msg: % 05 dut msg: 05
#          49 bench msg: — 77 dut msg: 77
#          50 bench msg: 4 14 dut msg: 14
#          51 bench msg:  5f dut msg: 5f
#          52 bench msg: w 57 dut msg: 57
#          53 bench msg: f 46 dut msg: 46
#          54 bench msg: V 36 dut msg: 36
#          55 bench msg: ‘ 71 dut msg: 71
#          56 bench msg: ‚ 62 dut msg: 62
#          57 bench msg: d 44 dut msg: 44
#          58 bench msg: ) 09 dut msg: 09
#          59 bench msg: 2 12 dut msg: 12
#          60 bench msg: D 24 dut msg: 24
#          61 bench msg: i 49 dut msg: 49
#          62 bench msg: 3 13 dut msg: 13
#          63 bench msg: F 26 dut msg: 26
# score =          64/64
# ** Note: $stop    : C:/UCSD/SS2_2022/final_submission_pg1/program1_tb.sv(148)
#    Time: 12435 ns  Iteration: 0  Instance: /encrypt_tb
# Break in Module encrypt_tb at C:/UCSD/SS2_2022/final_submission_pg1/program1_tb.sv line 148
# End time: 22:36:31 on Sep 04,2022, Elapsed time: 0:00:27
# Errors: 0, Warnings: 2
